Assigment8
…
    Author

             Luis Silva 

Speed testing

The function makeSepsisDataset in sepsis_monitor_functions.R creates a single data file with ICU monitoring information on n randomly sampled patients by reading in the data files for these n individuals from the web. The function has two arguments:

n, which determines to number of patients to read in

read_fn, which specifies whether the reading of individual patient files should use the function fread or read_delim.

Use the tictoc package, write some code to compare the amount of time taken to create sepsis datasets with 50, 100, and 500 patients when using fread vs. read_delim.

# A tibble: 1,794 × 7
# Groups:   PatientID [50]
   PatientID ICULOS    HR  Temp  Resp SepsisLabel obsTime            
   <chr>      <int> <int> <dbl> <int>       <int> <dttm>             
 1 000110         0    91  36.8     3           0 2023-04-08 19:19:31
 2 000110         1    89  36.7    15           0 2023-04-08 19:34:44
 3 000110         2    80  36.7    21           0 2023-04-08 20:10:56
 4 000110         3    81  36.4    22           0 2023-04-08 20:58:58
 5 000110         4    71  36.6    18           0 2023-04-08 21:23:05
 6 000110         5    72  36.4    12           0 2023-04-09 05:51:07
 7 000110         6    67  NA       7           0 2023-04-09 06:43:41
 8 000110         7    62  NA      12           0 2023-04-09 07:00:58
 9 000110         8    60  NA      11           0 2023-04-09 08:00:31
10 000110         9    80  36.9     5           0 2023-04-09 08:01:57
# … with 1,784 more rows

4.37 sec elapsed

# A tibble: 4,116 × 7
# Groups:   PatientID [100]
   PatientID ICULOS    HR  Temp  Resp SepsisLabel obsTime            
   <chr>      <int> <int> <dbl> <int>       <int> <dttm>             
 1 000156         0    91  36      12           0 2023-04-08 19:19:39
 2 000156         1    99  36      13           0 2023-04-08 19:49:48
 3 000156         2   124  36.6    14           0 2023-04-08 19:53:06
 4 000156         3    89  36.9    12           0 2023-04-08 21:53:33
 5 000156         4    80  36.8    12           0 2023-04-09 01:12:19
 6 000156         5    80  36.7    16           0 2023-04-09 01:39:14
 7 000156         6    81  NA      16           0 2023-04-09 01:57:10
 8 000156         7    72  37.2    16           0 2023-04-09 04:11:41
 9 000156         8    74  37.5    16           0 2023-04-09 05:13:04
10 000156         9    75  37.5    16           0 2023-04-09 06:02:06
# … with 4,106 more rows

8.46 sec elapsed

# A tibble: 8,019 × 7
# Groups:   PatientID [200]
   PatientID ICULOS    HR  Temp  Resp SepsisLabel obsTime            
   <chr>      <int> <int> <dbl> <int>       <int> <dttm>             
 1 000050         0    97  35.9    19           0 2023-04-08 19:19:56
 2 000050         1    96  NA      22           0 2023-04-08 19:52:01
 3 000050         2    97  NA      27           0 2023-04-08 20:38:16
 4 000050         3    98  NA      30           0 2023-04-08 21:12:37
 5 000050         4   104  37.1    21           0 2023-04-08 21:13:58
 6 000050         5   103  NA      27           0 2023-04-08 21:19:31
 7 000050         6    98  NA      30           0 2023-04-08 21:44:15
 8 000050         7    94  NA      18           0 2023-04-08 21:51:38
 9 000050         8    93  NA      26           0 2023-04-09 00:25:11
10 000050         9    NA  NA      NA           0 2023-04-09 04:38:39
# … with 8,009 more rows

16.25 sec elapsed

# A tibble: 19,396 × 7
# Groups:   PatientID [500]
   PatientID ICULOS    HR  Temp  Resp SepsisLabel obsTime            
   <chr>      <int> <int> <dbl> <int>       <int> <dttm>             
 1 000011         0    81  NA      12           0 2023-04-08 19:20:36
 2 000011         1    82  38      12           0 2023-04-08 19:45:51
 3 000011         2    81  38.1    12           0 2023-04-08 20:20:14
 4 000011         3    82  NA      12           0 2023-04-08 21:26:03
 5 000011         4    84  NA      16           0 2023-04-08 21:55:15
 6 000011         5    84  NA      20           0 2023-04-08 23:09:11
 7 000011         6    85  38.2    18           0 2023-04-08 23:09:38
 8 000011         7    85  NA      14           0 2023-04-08 23:17:48
 9 000011         8    NA  NA      NA           0 2023-04-09 00:20:22
10 000011         9    79  NA      12           0 2023-04-09 00:39:36
# … with 19,386 more rows
…
